3,3.27691e-07
4,2.79568e-05, 2.11216e-07
5,0.000119144, 1.08062e-05
6,0.00018727, 4.49682e-05, 4.46066e-06
7,0.000236904, 8.83661e-05, 2.17505e-05
8,0.000270956, 0.000123853, 4.72136e-05, 1.17661e-05
9,0.000333665, 0.000142312, 6.776e-05, 3.03173e-05
10,0.000330611, 0.00020033, 9.39703e-05, 4.71533e-05, 1.91835e-05
11,0.000369324, 0.000205926, 0.000113026, 6.58116e-05, 3.43372e-05
12,0.00035526, 0.000226497, 0.000142709, 8.04333e-05, 4.52954e-05, 2.26532e-05
13,0.000349484, 0.000224899, 0.000147574, 9.68673e-05, 5.90991e-05, 3.45099e-05
14,0.000345561, 0.00023355, 0.000179482, 0.000111313, 7.16057e-05, 4.54453e-05, 2.71894e-05
15,0.000348193, 0.000257346, 0.000178755, 0.000117822, 8.98594e-05, 5.53345e-05, 3.43776e-05
16,0.000340731, 0.000240646, 0.000197199, 0.000135998, 9.5833e-05, 6.85716e-05, 4.36179e-05, 2.58681e-05
17,0.00033726, 0.000248816, 0.000185412, 0.000147042, 0.000103135, 7.77966e-05, 5.29079e-05, 3.77014e-05
18,0.000342267, 0.000266343, 0.000198556, 0.000136114, 0.000101278, 8.32731e-05, 6.06501e-05, 4.27937e-05, 2.79449e-05
19,0.000307234, 0.000247598, 0.000209557, 0.000147786, 0.000124098, 8.50013e-05, 6.97819e-05, 4.56698e-05, 3.26548e-05
20,0.000327019, 0.000262708, 0.000202271, 0.000175485, 0.000116088, 0.000106994, 7.81315e-05, 5.45537e-05, 4.02675e-05, 2.78e-05
21,0.000322222, 0.000248174, 0.000219832, 0.000170103, 0.000133337, 0.000109632, 8.2468e-05, 6.40308e-05, 4.83448e-05, 3.67814e-05
22,0.000298808, 0.00026076, 0.000205629, 0.000164596, 0.00014636, 0.000115067, 9.12761e-05, 6.46252e-05, 6.11071e-05, 4.22337e-05, 3.12094e-05
23,0.000307429, 0.000255713, 0.000236526, 0.000165764, 0.000138939, 0.000109867, 9.17264e-05, 7.45504e-05, 5.85339e-05, 4.33184e-05, 3.82097e-05
24,0.000261093, 0.000264927, 0.000234052, 0.00017456, 0.000148454, 0.000108026, 0.000109783, 7.64642e-05, 6.36628e-05, 5.46016e-05, 4.0528e-05, 2.92554e-05
25,0.000278351, 0.000260349, 0.000193412, 0.000177958, 0.000142162, 0.000121324, 0.000103786, 8.85037e-05, 6.80302e-05, 5.35077e-05, 3.95867e-05, 3.39935e-05
26,0.000264729, 0.000234971, 0.000196265, 0.000171343, 0.000144983, 0.000123762, 0.000119939, 0.00010112, 7.4219e-05, 6.08617e-05, 4.96419e-05, 3.64921e-05, 2.75707e-05
27,0.000294593, 0.000229197, 0.000196655, 0.000189192, 0.000158819, 0.000133376, 0.000110681, 9.16703e-05, 8.36882e-05, 6.45313e-05, 5.37997e-05, 3.99371e-05, 3.35922e-05
28,0.000256555, 0.000254689, 0.000212664, 0.000178182, 0.000155345, 0.000129006, 0.000115371, 9.88679e-05, 7.9419e-05, 7.30229e-05, 5.6606e-05, 4.39752e-05, 3.75488e-05, 2.96806e-05
29,0.000255414, 0.000222016, 0.000219689, 0.000174961, 0.000173749, 0.000133037, 0.000138085, 9.55213e-05, 9.04279e-05, 7.19098e-05, 6.56791e-05, 4.84149e-05, 4.19158e-05, 3.61977e-05
30,0.00025972, 0.000253051, 0.000191459, 0.000189733, 0.000161876, 0.000144881, 0.000124555, 0.000104744, 8.63428e-05, 8.3042e-05, 6.88563e-05, 5.38057e-05, 4.42897e-05, 3.81319e-05, 3.1599e-05
31,0.000230634, 0.000227078, 0.000217836, 0.000203743, 0.000154789, 0.000147306, 0.000131544, 0.000111282, 9.70394e-05, 8.48736e-05, 5.97168e-05, 6.37225e-05, 4.59624e-05, 3.9502e-05, 3.4896e-05
32,0.000237164, 0.000236001, 0.000195674, 0.000181489, 0.000147254, 0.000158425, 0.000129146, 0.00010811, 0.00010087, 8.71736e-05, 7.63865e-05, 6.56121e-05, 5.18198e-05, 4.72734e-05, 3.62674e-05, 3.16652e-05
33,0.000229996, 0.000206856, 0.000188417, 0.000191215, 0.000155441, 0.000154876, 0.000120094, 0.000115172, 0.000105159, 8.59867e-05, 7.9975e-05, 6.95765e-05, 5.62973e-05, 4.86592e-05, 3.98159e-05, 3.35929e-05
34,0.000236031, 0.000214958, 0.000177883, 0.000175356, 0.000169064, 0.000143339, 0.000120043, 0.000117603, 9.62724e-05, 7.92701e-05, 7.82758e-05, 6.61281e-05, 6.07986e-05, 4.89168e-05, 4.4139e-05, 3.51438e-05, 2.81608e-05
35,0.000226196, 0.000204646, 0.000204095, 0.000175584, 0.000155727, 0.000144237, 0.000126257, 0.000120869, 0.000112658, 9.35904e-05, 7.38814e-05, 6.91286e-05, 6.49548e-05, 5.85697e-05, 4.64339e-05, 3.73569e-05, 3.18774e-05
36,0.000204753, 0.000187689, 0.000200354, 0.000165271, 0.000174427, 0.000144036, 0.00013302, 0.000124502, 0.000109722, 9.55658e-05, 8.86003e-05, 7.42562e-05, 6.72613e-05, 5.38789e-05, 4.55754e-05, 3.81745e-05, 3.47029e-05, 2.89397e-05
37,0.000220701, 0.000205071, 0.000200714, 0.000167444, 0.000148544, 0.00016048, 0.000134606, 0.000116557, 0.000104824, 9.79484e-05, 8.43638e-05, 8.13828e-05, 7.20107e-05, 5.62084e-05, 4.71039e-05, 4.53062e-05, 3.89407e-05, 3.13971e-05
38,0.000214087, 0.000211965, 0.00019863, 0.000164684, 0.000147943, 0.000141977, 0.00012873, 0.000113429, 0.000107641, 0.0001052, 8.40442e-05, 8.06671e-05, 7.08544e-05, 6.02095e-05, 5.38897e-05, 4.89578e-05, 4.24434e-05, 3.53797e-05, 3.01507e-05
39,0.000223739, 0.00019192, 0.00017235, 0.000180156, 0.00015176, 0.000135053, 0.000143958, 0.000124058, 0.000127949, 0.000101527, 8.95745e-05, 7.63554e-05, 7.09453e-05, 6.14335e-05, 5.6885e-05, 5.18554e-05, 4.43132e-05, 3.29738e-05, 3.37396e-05
40,0.000218862, 0.000220187, 0.000202805, 0.000173028, 0.000165598, 0.000143259, 0.000124124, 0.00011738, 0.000122899, 0.000103076, 8.76407e-05, 8.34879e-05, 7.72226e-05, 6.68352e-05, 5.85545e-05, 4.89153e-05, 4.16199e-05, 3.58255e-05, 3.36782e-05, 3.00662e-05
41,0.0002129, 0.000186535, 0.000171198, 0.000175932, 0.000147204, 0.000148657, 0.000132191, 0.000124848, 0.000108548, 9.92818e-05, 0.000101484, 8.21946e-05, 6.66522e-05, 6.94154e-05, 5.62329e-05, 5.43955e-05, 4.92821e-05, 4.40823e-05, 3.30936e-05, 3.39793e-05
42,0.000214175, 0.0001901, 0.000191338, 0.000169721, 0.00016263, 0.000158504, 0.000137013, 0.000124962, 0.000118802, 0.000103522, 9.3672e-05, 8.48717e-05, 7.8872e-05, 6.93895e-05, 6.1604e-05, 5.54253e-05, 5.28484e-05, 4.65359e-05, 3.98948e-05, 3.53192e-05, 2.84991e-05
43,0.00019897, 0.000191475, 0.000181659, 0.000164471, 0.000160145, 0.00014427, 0.000135522, 0.000122231, 0.000119091, 0.000107202, 9.2277e-05, 9.58761e-05, 7.71777e-05, 6.37918e-05, 5.67697e-05, 6.21164e-05, 5.34863e-05, 4.70744e-05, 4.08572e-05, 3.75491e-05, 3.43888e-05
44,0.000199544, 0.000195054, 0.000186731, 0.000165994, 0.000160635, 0.000164045, 0.000130185, 0.000130692, 0.000121253, 0.000108061, 9.36763e-05, 8.2976e-05, 8.60217e-05, 7.33505e-05, 6.81917e-05, 6.28482e-05, 5.33236e-05, 4.85413e-05, 3.90127e-05, 3.44792e-05, 2.99636e-05, 2.91853e-05
45,0.000182459, 0.000194873, 0.000190039, 0.000167128, 0.000186327, 0.000147708, 0.000131957, 0.00012974, 0.0001258, 0.000118084, 0.000103675, 9.59178e-05, 8.80158e-05, 7.69086e-05, 7.44609e-05, 6.44687e-05, 5.40902e-05, 4.40879e-05, 4.30356e-05, 3.89165e-05, 3.38909e-05, 3.1193e-05
46,0.000175677, 0.00018962, 0.000182839, 0.000160743, 0.000166192, 0.000149235, 0.000143185, 0.000135467, 0.000121483, 0.000110821, 9.63991e-05, 9.87331e-05, 8.29904e-05, 7.97386e-05, 6.73189e-05, 6.54488e-05, 5.79569e-05, 5.5079e-05, 4.63018e-05, 4.20298e-05, 3.78806e-05, 3.38561e-05, 2.91215e-05
47,0.00018444, 0.000177083, 0.000167356, 0.000158899, 0.000154468, 0.00014965, 0.000142903, 0.000129242, 0.000119302, 0.00010803, 9.95703e-05, 9.53925e-05, 9.08464e-05, 7.66839e-05, 7.92585e-05, 6.18279e-05, 5.91464e-05, 5.93878e-05, 5.12525e-05, 4.71066e-05, 3.66372e-05, 3.59035e-05, 3.17442e-05
48,0.000173361, 0.000178592, 0.000169549, 0.000181517, 0.000159726, 0.00015075, 0.000133763, 0.000138661, 0.000115177, 0.000119396, 9.46704e-05, 9.78352e-05, 8.31259e-05, 7.62949e-05, 7.67937e-05, 7.44183e-05, 6.47963e-05, 5.88985e-05, 4.70691e-05, 4.65904e-05, 4.17552e-05, 3.56657e-05, 3.31486e-05, 2.89371e-05
49,0.000186193, 0.000185343, 0.000151498, 0.000150888, 0.000155063, 0.000150476, 0.00014669, 0.000137913, 0.000124868, 0.00011998, 9.44483e-05, 9.56644e-05, 8.66331e-05, 8.25422e-05, 7.62079e-05, 7.22425e-05, 6.29469e-05, 5.59947e-05, 5.14638e-05, 4.70183e-05, 4.19044e-05, 3.69822e-05, 3.54967e-05, 3.3747e-05
50,0.00015666, 0.000184435, 0.000168962, 0.000172445, 0.0001581, 0.000124166, 0.000138935, 0.000131058, 0.000114668, 0.000114506, 9.77539e-05, 9.40731e-05, 9.77592e-05, 8.35907e-05, 7.57084e-05, 7.30222e-05, 6.3099e-05, 5.69032e-05, 5.11567e-05, 4.78457e-05, 4.17158e-05, 3.8934e-05, 3.57855e-05, 2.9791e-05, 2.81487e-05
55,0.000160179, 0.000175341, 0.000157203, 0.000153747, 0.000162559, 0.000140484, 0.000137842, 0.000122038, 0.000130432, 0.000118737, 0.000106567, 0.000106351, 0.000104436, 8.77167e-05, 8.33592e-05, 8.34183e-05, 7.09595e-05, 6.95148e-05, 6.38857e-05, 5.87806e-05, 5.39564e-05, 4.82008e-05, 4.12547e-05, 3.80917e-05, 3.57727e-05, 3.32292e-05, 3.05178e-05
60,0.000159531, 0.000174501, 0.000166839, 0.000176288, 0.000168891, 0.000160458, 0.000167111, 0.000139256, 0.000133191, 0.000131297, 0.000124918, 0.0001065, 0.00012187, 0.00010054, 9.11952e-05, 8.35725e-05, 8.505e-05, 8.62883e-05, 6.99138e-05, 6.97316e-05, 6.34621e-05, 6.15396e-05, 6.08199e-05, 4.89898e-05, 4.85635e-05, 4.45443e-05, 3.84452e-05, 3.79819e-05, 3.21814e-05, 3.34059e-05
65,0.000156778, 0.00016266, 0.000158099, 0.000161392, 0.000152577, 0.00014889, 0.000137461, 0.000140551, 0.000120852, 0.000121607, 0.000120402, 0.000113236, 0.000113141, 0.000111357, 0.000100963, 8.96892e-05, 8.78072e-05, 8.44174e-05, 8.41592e-05, 8.0296e-05, 7.04375e-05, 6.50008e-05, 5.40237e-05, 5.48909e-05, 5.22874e-05, 4.9809e-05, 4.24748e-05, 4.01908e-05, 4.13271e-05, 3.80508e-05, 3.27482e-05, 3.00865e-05
70,0.000153943, 0.000154643, 0.000156392, 0.000164102, 0.000146958, 0.000157012, 0.000139727, 0.000149809, 0.000118296, 0.000130104, 0.000115407, 0.00012302, 0.000106902, 0.00010768, 9.676e-05, 9.87677e-05, 8.56565e-05, 9.52874e-05, 9.10026e-05, 7.72027e-05, 7.99729e-05, 6.81158e-05, 6.43641e-05, 6.75111e-05, 5.62313e-05, 4.94921e-05, 5.38076e-05, 5.14185e-05, 4.19012e-05, 4.39957e-05, 4.07364e-05, 3.62134e-05, 3.41031e-05, 3.16467e-05, 2.92857e-05
75,0.000138003, 0.000146399, 0.000137855, 0.00014518, 0.000141005, 0.00013814, 0.000125418, 0.000144047, 0.000139129, 0.000122007, 0.000124177, 0.000111391, 0.000106654, 0.000120706, 9.74853e-05, 9.09801e-05, 9.51052e-05, 8.68e-05, 8.00557e-05, 8.01463e-05, 7.40901e-05, 7.38951e-05, 7.10676e-05, 6.86862e-05, 6.10751e-05, 5.9297e-05, 6.03159e-05, 5.05649e-05, 4.79887e-05, 4.97327e-05, 4.43556e-05, 4.16501e-05, 3.46129e-05, 3.75732e-05, 3.29775e-05, 3.12159e-05, 2.88917e-05
80,0.000144312, 0.000133629, 0.000155193, 0.000150341, 0.000149479, 0.000139997, 0.00014873, 0.000143085, 0.000131827, 0.000129487, 0.000120246, 0.000114823, 0.000119075, 0.000124589, 0.000113305, 9.85192e-05, 0.000102961, 9.64756e-05, 8.81673e-05, 8.55838e-05, 8.27624e-05, 8.31578e-05, 7.24215e-05, 6.75439e-05, 7.09748e-05, 6.60178e-05, 6.29469e-05, 5.52642e-05, 5.90472e-05, 5.39255e-05, 4.9719e-05, 4.73905e-05, 4.15165e-05, 4.49778e-05, 4.13947e-05, 3.94322e-05, 3.32169e-05, 2.88369e-05, 3.30291e-05, 2.58268e-05
90,0.000124795, 0.000126608, 0.000135039, 0.000125877, 0.000137236, 0.000131357, 0.000122207, 0.000142597, 0.000120987, 0.00012282, 0.000111969, 0.000119425, 0.000103704, 0.000112002, 0.000109183, 9.88425e-05, 9.83715e-05, 9.64034e-05, 9.49358e-05, 9.49805e-05, 9.13609e-05, 8.64199e-05, 8.36222e-05, 7.27888e-05, 7.14446e-05, 7.44034e-05, 7.10686e-05, 6.27161e-05, 6.68662e-05, 5.90837e-05, 5.4341e-05, 5.50002e-05, 5.60987e-05, 5.45553e-05, 4.66014e-05, 4.43138e-05, 4.69618e-05, 4.09906e-05, 3.9908e-05, 3.8903e-05, 3.23687e-05, 3.3355e-05, 2.76423e-05, 2.76905e-05, 2.71003e-05
100,0.000117653, 0.000111061, 0.000135978, 0.000126168, 0.000109816, 0.000140663, 0.000126982, 0.000122333, 0.000124032, 0.000115404, 0.000105993, 0.000112448, 0.000117243, 0.000118911, 9.96352e-05, 9.7979e-05, 0.000107209, 0.000104015, 9.18263e-05, 8.08329e-05, 8.03704e-05, 8.29112e-05, 8.08234e-05, 8.13675e-05, 7.99537e-05, 7.4341e-05, 6.99839e-05, 7.53134e-05, 6.44802e-05, 6.51981e-05, 6.28017e-05, 5.94415e-05, 5.63134e-05, 5.44918e-05, 5.53939e-05, 4.81858e-05, 4.8941e-05, 4.55662e-05, 4.59587e-05, 4.18813e-05, 3.8543e-05, 3.64386e-05, 4.07135e-05, 3.95924e-05, 3.58699e-05, 3.20151e-05, 2.8536e-05, 2.84058e-05, 2.90293e-05, 2.76229e-05
