3,8.49154e-05
4,0.000128587, 0.000107678
5,0.000117985, 0.000111574
6,0.000106929, 0.000109979, 5.42422e-05
7,0.000110011, 0.000109051, 6.79611e-05
8,9.8188e-05, 0.000100274, 7.3482e-05, 5.1095e-05
9,9.02226e-05, 9.57019e-05, 7.56592e-05, 6.07337e-05
10,8.17665e-05, 9.71111e-05, 8.10658e-05, 6.31609e-05, 4.68269e-05
11,7.10163e-05, 8.87415e-05, 7.92396e-05, 6.58906e-05, 4.6127e-05
12,7.28232e-05, 8.00245e-05, 7.7758e-05, 6.75799e-05, 5.09153e-05, 3.74965e-05
13,6.6175e-05, 8.18531e-05, 7.17252e-05, 6.27781e-05, 5.21017e-05, 4.42825e-05
14,6.73958e-05, 8.53589e-05, 8.00551e-05, 6.73572e-05, 5.1869e-05, 4.45244e-05, 3.87042e-05
15,6.08078e-05, 7.3662e-05, 6.78661e-05, 6.76689e-05, 6.23e-05, 4.53724e-05, 3.8995e-05
16,5.96861e-05, 7.49436e-05, 6.99039e-05, 6.80985e-05, 5.51673e-05, 5.35202e-05, 4.22736e-05, 3.32312e-05
17,5.24988e-05, 7.41579e-05, 7.33138e-05, 6.77978e-05, 6.11782e-05, 5.12238e-05, 4.41557e-05, 3.38091e-05
18,5.30266e-05, 6.87591e-05, 6.93092e-05, 6.27136e-05, 5.85918e-05, 5.30066e-05, 4.16068e-05, 3.90949e-05, 3.01532e-05
19,4.7265e-05, 6.39835e-05, 6.72704e-05, 6.64186e-05, 6.32784e-05, 5.24117e-05, 4.63903e-05, 3.86859e-05, 3.43831e-05
20,4.9444e-05, 5.90572e-05, 6.56804e-05, 7.13373e-05, 5.65832e-05, 5.26525e-05, 4.40361e-05, 3.94719e-05, 3.56917e-05, 2.76398e-05
21,4.72334e-05, 6.60321e-05, 5.447e-05, 6.11846e-05, 5.95277e-05, 5.43885e-05, 4.55463e-05, 4.27232e-05, 3.48306e-05, 3.01014e-05
22,4.81342e-05, 6.14283e-05, 6.13544e-05, 6.81809e-05, 6.01162e-05, 5.23166e-05, 4.61403e-05, 3.84753e-05, 3.47334e-05, 3.30319e-05, 2.58718e-05
23,4.12253e-05, 5.38238e-05, 5.50798e-05, 6.26212e-05, 5.60112e-05, 5.43601e-05, 4.77497e-05, 4.29361e-05, 3.77548e-05, 3.26638e-05, 2.76878e-05
24,4.0324e-05, 5.67437e-05, 6.08832e-05, 5.86398e-05, 6.0779e-05, 5.47053e-05, 5.05017e-05, 4.57854e-05, 3.91298e-05, 3.82906e-05, 3.13117e-05, 2.42087e-05
25,4.03488e-05, 5.64211e-05, 5.51706e-05, 6.12086e-05, 5.57884e-05, 4.99934e-05, 4.9722e-05, 4.58953e-05, 4.33323e-05, 3.66804e-05, 3.1682e-05, 2.62513e-05
26,4.06915e-05, 5.56066e-05, 5.79545e-05, 5.7387e-05, 5.62688e-05, 4.66335e-05, 5.5178e-05, 4.30262e-05, 4.16291e-05, 4.15798e-05, 3.06207e-05, 2.89e-05, 2.19856e-05
27,3.9885e-05, 5.5644e-05, 5.65268e-05, 5.3733e-05, 6.16112e-05, 5.08976e-05, 5.34708e-05, 4.6931e-05, 4.38667e-05, 3.46606e-05, 3.2991e-05, 2.87979e-05, 2.49065e-05
28,3.54278e-05, 5.09655e-05, 5.08555e-05, 5.67674e-05, 5.84021e-05, 4.82194e-05, 4.77244e-05, 4.7202e-05, 4.46176e-05, 3.92269e-05, 3.35386e-05, 3.29889e-05, 2.9648e-05, 2.41328e-05
29,3.96637e-05, 4.97517e-05, 5.97327e-05, 6.03554e-05, 5.49931e-05, 5.16418e-05, 4.9711e-05, 4.24462e-05, 4.2025e-05, 3.85168e-05, 3.12637e-05, 3.15852e-05, 2.82472e-05, 2.34195e-05
30,3.26296e-05, 5.0046e-05, 5.55366e-05, 5.46193e-05, 5.34582e-05, 5.03648e-05, 4.7703e-05, 4.69534e-05, 4.53121e-05, 3.82997e-05, 3.59375e-05, 3.22418e-05, 2.88707e-05, 2.58289e-05, 2.18349e-05
31,3.29311e-05, 4.52593e-05, 5.42189e-05, 5.59963e-05, 5.57728e-05, 4.97078e-05, 4.90532e-05, 4.52692e-05, 4.72584e-05, 4.07887e-05, 3.81993e-05, 3.48228e-05, 3.22247e-05, 2.65562e-05, 2.48678e-05
32,3.64065e-05, 4.37272e-05, 5.33706e-05, 5.31538e-05, 5.41893e-05, 5.70351e-05, 4.60604e-05, 4.44083e-05, 4.42535e-05, 4.18068e-05, 3.79806e-05, 3.59827e-05, 3.08567e-05, 2.86481e-05, 2.59423e-05, 2.22189e-05
33,3.0675e-05, 4.7132e-05, 5.20499e-05, 5.05028e-05, 4.85843e-05, 5.16162e-05, 4.96341e-05, 4.71772e-05, 4.54465e-05, 4.35765e-05, 3.60174e-05, 4.24019e-05, 3.12216e-05, 3.10885e-05, 2.70941e-05, 2.34672e-05
34,3.05274e-05, 4.97576e-05, 5.29697e-05, 4.69433e-05, 4.8543e-05, 5.0277e-05, 4.99383e-05, 4.51936e-05, 4.49671e-05, 4.41203e-05, 3.51736e-05, 3.41601e-05, 3.00551e-05, 2.88958e-05, 2.37942e-05, 2.37276e-05, 2.05074e-05
35,2.99444e-05, 4.17151e-05, 4.67808e-05, 5.47559e-05, 5.02947e-05, 4.85847e-05, 4.32729e-05, 4.52512e-05, 4.31968e-05, 4.2598e-05, 3.78841e-05, 3.821e-05, 3.38415e-05, 3.04962e-05, 2.77841e-05, 2.35604e-05, 2.11887e-05
36,3.07794e-05, 4.31529e-05, 4.75667e-05, 4.89438e-05, 4.88473e-05, 5.03398e-05, 4.36359e-05, 4.27141e-05, 4.28763e-05, 3.99018e-05, 4.02551e-05, 3.79284e-05, 3.10701e-05, 3.1832e-05, 2.81934e-05, 2.54375e-05, 2.14714e-05, 2.10471e-05
37,2.94083e-05, 4.20565e-05, 4.9106e-05, 5.04994e-05, 5.14625e-05, 4.86086e-05, 4.50821e-05, 4.52595e-05, 4.50326e-05, 4.18005e-05, 3.8397e-05, 3.53392e-05, 3.27189e-05, 3.21449e-05, 3.03418e-05, 2.65936e-05, 2.4696e-05, 1.98865e-05
38,3.11437e-05, 4.14921e-05, 4.53237e-05, 4.87474e-05, 4.58508e-05, 5.05525e-05, 4.88127e-05, 4.31142e-05, 4.37229e-05, 4.26014e-05, 4.2408e-05, 3.42493e-05, 3.40204e-05, 3.02324e-05, 2.96446e-05, 2.71962e-05, 2.63554e-05, 2.28774e-05, 1.89069e-05
39,2.7502e-05, 3.86958e-05, 4.64633e-05, 4.42219e-05, 4.7295e-05, 4.86882e-05, 4.63754e-05, 4.5328e-05, 4.86847e-05, 4.36226e-05, 3.97488e-05, 3.51773e-05, 3.41191e-05, 3.46711e-05, 2.91919e-05, 2.57187e-05, 2.43707e-05, 2.14783e-05, 2.03268e-05
40,2.66297e-05, 3.81863e-05, 4.43726e-05, 4.63505e-05, 4.47143e-05, 5.03315e-05, 4.47246e-05, 4.26902e-05, 4.6194e-05, 4.33981e-05, 3.88785e-05, 3.54866e-05, 3.83756e-05, 3.01016e-05, 3.16197e-05, 2.94163e-05, 2.5866e-05, 2.3151e-05, 2.24256e-05, 1.97283e-05
41,2.58184e-05, 3.64599e-05, 4.41877e-05, 4.46293e-05, 4.58573e-05, 4.74432e-05, 4.79902e-05, 4.4741e-05, 4.42893e-05, 3.9261e-05, 3.84208e-05, 3.86307e-05, 3.64301e-05, 3.45879e-05, 3.42766e-05, 2.96928e-05, 2.72898e-05, 2.43324e-05, 2.08744e-05, 1.95469e-05
42,2.74363e-05, 3.51282e-05, 4.10841e-05, 4.47188e-05, 4.4487e-05, 4.52488e-05, 4.82017e-05, 4.51972e-05, 4.45242e-05, 4.18406e-05, 3.95096e-05, 3.49865e-05, 3.74307e-05, 3.4504e-05, 2.74157e-05, 3.03061e-05, 2.83606e-05, 2.53346e-05, 2.43809e-05, 2.00347e-05, 1.75169e-05
43,2.40658e-05, 3.76021e-05, 4.58223e-05, 4.21268e-05, 4.3499e-05, 4.50466e-05, 4.23213e-05, 4.59268e-05, 4.60838e-05, 4.46143e-05, 4.05482e-05, 3.4432e-05, 3.5417e-05, 3.25515e-05, 3.06464e-05, 3.0712e-05, 2.63666e-05, 2.68715e-05, 2.35276e-05, 2.16948e-05, 2.11973e-05
44,2.60432e-05, 3.67028e-05, 4.07851e-05, 4.32399e-05, 4.48637e-05, 4.39781e-05, 4.24731e-05, 4.28683e-05, 4.45759e-05, 4.01517e-05, 3.92439e-05, 3.63977e-05, 3.55882e-05, 3.39967e-05, 3.2431e-05, 3.23726e-05, 2.96998e-05, 2.61124e-05, 2.55165e-05, 2.26039e-05, 2.00548e-05, 1.85709e-05
45,2.4746e-05, 3.41099e-05, 4.04051e-05, 4.33091e-05, 4.60885e-05, 4.28033e-05, 4.12282e-05, 3.95671e-05, 4.33816e-05, 4.41209e-05, 3.91528e-05, 3.64362e-05, 3.85404e-05, 3.4469e-05, 3.27746e-05, 3.10666e-05, 2.54399e-05, 2.54652e-05, 2.43599e-05, 2.1277e-05, 1.96379e-05, 1.88777e-05
46,2.36773e-05, 3.63541e-05, 3.99964e-05, 4.40086e-05, 3.87477e-05, 4.53108e-05, 4.5969e-05, 4.18144e-05, 4.5672e-05, 4.14108e-05, 4.18299e-05, 4.04685e-05, 3.51613e-05, 3.35348e-05, 3.2315e-05, 2.90345e-05, 2.77447e-05, 2.49429e-05, 2.7009e-05, 2.24999e-05, 2.15701e-05, 1.93925e-05, 1.6865e-05
47,2.29284e-05, 3.70594e-05, 4.25202e-05, 4.21867e-05, 4.5661e-05, 4.57511e-05, 4.64583e-05, 4.07555e-05, 4.13141e-05, 4.10991e-05, 3.80746e-05, 3.78924e-05, 3.83173e-05, 3.51884e-05, 3.2415e-05, 3.24597e-05, 3.1756e-05, 2.87978e-05, 2.68455e-05, 2.24124e-05, 2.22838e-05, 2.0591e-05, 1.93572e-05
48,2.26575e-05, 3.56617e-05, 4.2727e-05, 4.18948e-05, 4.36353e-05, 4.48524e-05, 4.33524e-05, 4.62594e-05, 4.17318e-05, 4.23663e-05, 3.80416e-05, 3.81603e-05, 3.83396e-05, 3.30617e-05, 3.52105e-05, 3.43498e-05, 3.03413e-05, 2.97054e-05, 2.71295e-05, 2.39149e-05, 2.38271e-05, 2.03935e-05, 2.19443e-05, 1.63824e-05
49,2.23408e-05, 3.52117e-05, 3.96275e-05, 4.282e-05, 4.67009e-05, 4.49071e-05, 4.28471e-05, 4.25872e-05, 4.06064e-05, 4.46635e-05, 3.79453e-05, 3.72455e-05, 3.63202e-05, 3.20961e-05, 3.133e-05, 2.97519e-05, 2.92137e-05, 2.65604e-05, 2.6694e-05, 2.3019e-05, 2.25609e-05, 1.90868e-05, 1.8802e-05, 1.76123e-05
50,2.48715e-05, 3.18533e-05, 4.18653e-05, 4.22347e-05, 4.24215e-05, 4.16205e-05, 4.20303e-05, 4.1568e-05, 4.22586e-05, 4.1404e-05, 3.98364e-05, 3.86516e-05, 3.95336e-05, 3.54883e-05, 3.32981e-05, 3.05865e-05, 3.17724e-05, 2.88073e-05, 2.60055e-05, 2.3923e-05, 2.15491e-05, 2.04929e-05, 2.00084e-05, 1.80265e-05, 1.77503e-05
55,2.1419e-05, 3.33348e-05, 3.74575e-05, 3.96682e-05, 4.08027e-05, 4.09075e-05, 3.93108e-05, 4.08136e-05, 4.11885e-05, 4.00394e-05, 4.07706e-05, 3.90917e-05, 3.6202e-05, 3.80371e-05, 3.68747e-05, 3.25767e-05, 3.07256e-05, 3.05047e-05, 2.87503e-05, 2.54913e-05, 2.51899e-05, 2.02712e-05, 1.98538e-05, 2.08024e-05, 1.96676e-05, 1.7475e-05, 1.69369e-05
60,2.55101e-05, 3.47619e-05, 4.35668e-05, 4.70591e-05, 4.75829e-05, 4.99095e-05, 5.92182e-05, 5.22578e-05, 5.09343e-05, 4.6966e-05, 4.74898e-05, 4.68638e-05, 4.2277e-05, 4.57082e-05, 4.31553e-05, 4.45581e-05, 4.11291e-05, 4.01697e-05, 3.82324e-05, 3.95406e-05, 3.6301e-05, 3.37455e-05, 2.98974e-05, 2.86818e-05, 2.84769e-05, 2.76482e-05, 2.59635e-05, 2.42735e-05, 1.95871e-05, 2.07678e-05
65,2.16397e-05, 3.06977e-05, 3.6939e-05, 4.49726e-05, 4.4892e-05, 5.02056e-05, 5.00719e-05, 5.1605e-05, 4.4144e-05, 5.21839e-05, 4.70688e-05, 4.46861e-05, 4.48314e-05, 4.65143e-05, 3.99973e-05, 3.73223e-05, 4.39473e-05, 4.42942e-05, 4.02787e-05, 3.36387e-05, 3.44024e-05, 3.29997e-05, 3.14087e-05, 3.09867e-05, 2.9547e-05, 3.15379e-05, 2.91417e-05, 2.39384e-05, 2.58201e-05, 2.42426e-05, 2.18259e-05, 2.0473e-05
70,2.17064e-05, 2.76208e-05, 3.76318e-05, 4.01536e-05, 4.00318e-05, 4.55376e-05, 4.49216e-05, 4.78963e-05, 4.40905e-05, 4.65774e-05, 4.35895e-05, 4.50357e-05, 4.66309e-05, 4.61113e-05, 4.43424e-05, 4.21927e-05, 4.19542e-05, 4.23876e-05, 4.23241e-05, 3.71003e-05, 3.58077e-05, 3.6406e-05, 3.22148e-05, 3.36661e-05, 3.42431e-05, 3.00911e-05, 3.02154e-05, 2.50685e-05, 2.67348e-05, 2.55985e-05, 2.39433e-05, 2.27471e-05, 2.04782e-05, 1.90204e-05, 1.70528e-05
75,1.90303e-05, 2.89054e-05, 3.27419e-05, 4.04125e-05, 3.93113e-05, 4.22018e-05, 4.0287e-05, 4.48795e-05, 4.46303e-05, 4.32264e-05, 4.22594e-05, 4.26558e-05, 4.60718e-05, 3.96476e-05, 4.04783e-05, 4.12176e-05, 3.89624e-05, 3.7161e-05, 3.72599e-05, 3.74712e-05, 3.78521e-05, 3.65332e-05, 3.22608e-05, 3.27224e-05, 3.20253e-05, 3.07447e-05, 3.1398e-05, 3.00145e-05, 2.49915e-05, 2.65839e-05, 2.37334e-05, 2.46e-05, 2.25138e-05, 2.05075e-05, 2.00081e-05, 1.89569e-05, 1.79583e-05
80,1.61052e-05, 2.76488e-05, 3.30958e-05, 3.95593e-05, 3.7991e-05, 4.14842e-05, 4.67863e-05, 4.24206e-05, 4.49133e-05, 4.68706e-05, 4.39473e-05, 4.29216e-05, 4.5157e-05, 4.30205e-05, 4.35491e-05, 4.35457e-05, 4.12194e-05, 3.77233e-05, 3.95889e-05, 4.06093e-05, 3.60615e-05, 3.6661e-05, 3.54495e-05, 3.71945e-05, 3.20463e-05, 3.32653e-05, 3.23155e-05, 3.01973e-05, 2.71341e-05, 2.87633e-05, 2.63851e-05, 2.64647e-05, 2.54933e-05, 2.50007e-05, 2.03193e-05, 2.31068e-05, 2.09205e-05, 2.08129e-05, 1.83404e-05, 1.6768e-05
90,1.43256e-05, 2.40906e-05, 3.11307e-05, 3.24143e-05, 3.62625e-05, 3.70581e-05, 4.02424e-05, 4.00574e-05, 3.86894e-05, 4.01016e-05, 4.27418e-05, 4.76513e-05, 3.91038e-05, 4.10496e-05, 4.18025e-05, 4.22237e-05, 3.90794e-05, 3.85695e-05, 3.99794e-05, 3.87513e-05, 3.97321e-05, 3.63522e-05, 3.71958e-05, 3.4229e-05, 3.08659e-05, 3.17856e-05, 3.25221e-05, 2.99718e-05, 3.07063e-05, 3.0122e-05, 2.89178e-05, 2.87244e-05, 2.90476e-05, 2.57198e-05, 2.61813e-05, 2.30588e-05, 2.35271e-05, 2.28558e-05, 2.01221e-05, 2.02553e-05, 1.91193e-05, 1.88031e-05, 1.74068e-05, 1.83928e-05, 1.56551e-05
100,1.6538e-05, 2.23851e-05, 2.86571e-05, 2.9333e-05, 3.35455e-05, 3.5806e-05, 3.92169e-05, 3.63255e-05, 3.88503e-05, 3.93815e-05, 3.90133e-05, 3.99138e-05, 3.818e-05, 3.87837e-05, 3.9477e-05, 3.43384e-05, 3.78007e-05, 4.01938e-05, 3.64034e-05, 3.93117e-05, 3.56119e-05, 3.79562e-05, 3.74592e-05, 3.60296e-05, 3.62264e-05, 3.3411e-05, 3.26415e-05, 3.36371e-05, 3.29554e-05, 3.02538e-05, 3.22576e-05, 3.09512e-05, 2.85069e-05, 2.65796e-05, 2.72117e-05, 2.64427e-05, 2.65105e-05, 2.53212e-05, 2.4411e-05, 2.31044e-05, 2.04312e-05, 2.07813e-05, 2.17661e-05, 1.87299e-05, 1.90261e-05, 1.83243e-05, 1.79029e-05, 1.69607e-05, 1.56197e-05, 1.5766e-05
