3,1.09491e-06
4,0.000997515, 7.35483e-07
5,0.00960791, 0.000356689
6,0.0298353, 0.00350601, 0.000146251
7,0.0583238, 0.0119512, 0.00168342
8,0.0916895, 0.0257083, 0.0061433, 0.000932118
9,0.126705, 0.0435869, 0.0140446, 0.00364126
10,0.161709, 0.063939, 0.0250645, 0.00867354, 0.00234851
11,0.195623, 0.0862153, 0.0383376, 0.0160146, 0.00575846
12,0.227455, 0.108888, 0.0534788, 0.0252536, 0.0109339, 0.00404346
13,0.258019, 0.131739, 0.0696781, 0.0361531, 0.0176504, 0.0078176
14,0.286091, 0.154648, 0.0867341, 0.0482241, 0.0258414, 0.0129479, 0.00585829
15,0.313048, 0.176813, 0.104159, 0.0612979, 0.0350629, 0.0191836, 0.00976135
16,0.337659, 0.19832, 0.121605, 0.0746401, 0.0451967, 0.0264754, 0.0147135, 0.0075931
17,0.360943, 0.219027, 0.138896, 0.0886847, 0.0561184, 0.0346183, 0.0205047, 0.0115461
18,0.382641, 0.239271, 0.156184, 0.102925, 0.0674325, 0.0433567, 0.0270885, 0.0162668, 0.00925035
19,0.403275, 0.258426, 0.172775, 0.1172, 0.0790806, 0.0527909, 0.0344697, 0.0216986, 0.0131664
20,0.42247, 0.276769, 0.189271, 0.131407, 0.0911414, 0.0624251, 0.0421564, 0.0277975, 0.0177117, 0.0107776
21,0.439789, 0.294451, 0.205316, 0.145454, 0.103014, 0.0725034, 0.0504223, 0.034313, 0.0227822, 0.0146524
22,0.456829, 0.311619, 0.220854, 0.15928, 0.115115, 0.0828413, 0.0589767, 0.0414041, 0.0284231, 0.0190198, 0.0122459
23,0.472672, 0.327708, 0.236177, 0.172912, 0.127051, 0.0933352, 0.0677978, 0.0487034, 0.0345021, 0.0238077, 0.0160137
24,0.487671, 0.342841, 0.250651, 0.186432, 0.139083, 0.103686, 0.0769181, 0.056518, 0.0408287, 0.0290115, 0.0201637, 0.0136243
25,0.501378, 0.357629, 0.264994, 0.199447, 0.151068, 0.11432, 0.0861211, 0.0643715, 0.0475926, 0.0346792, 0.0247466, 0.0172437
26,0.514805, 0.371852, 0.278647, 0.212423, 0.162735, 0.124947, 0.095484, 0.0724796, 0.0545463, 0.0405887, 0.0296343, 0.0212662, 0.0149046
27,0.527362, 0.385005, 0.292054, 0.224969, 0.174238, 0.135404, 0.104844, 0.0808029, 0.0617255, 0.0466812, 0.0347976, 0.0255856, 0.0183852
28,0.539035, 0.398304, 0.304744, 0.237229, 0.185518, 0.145677, 0.114252, 0.0892015, 0.0690366, 0.0530678, 0.0403175, 0.0302584, 0.0222553, 0.0160832
29,0.550558, 0.410781, 0.317457, 0.248829, 0.196854, 0.156009, 0.1236, 0.0975378, 0.0764756, 0.0596332, 0.0459754, 0.0351216, 0.0263531, 0.0194669
30,0.561429, 0.422426, 0.329285, 0.260536, 0.207934, 0.166064, 0.132847, 0.105977, 0.0841749, 0.0663141, 0.0518984, 0.0402011, 0.0307661, 0.0231551, 0.0171909
31,0.571563, 0.434008, 0.340844, 0.271835, 0.218459, 0.176059, 0.14219, 0.114395, 0.091748, 0.0731399, 0.057967, 0.0455148, 0.0353189, 0.0270765, 0.020514
32,0.581427, 0.444862, 0.351921, 0.282676, 0.228795, 0.18601, 0.151215, 0.122925, 0.0995289, 0.0800707, 0.0642306, 0.0509895, 0.0400744, 0.0313045, 0.0240399, 0.0182032
33,0.590616, 0.45526, 0.362931, 0.293687, 0.239206, 0.195696, 0.160321, 0.131178, 0.107146, 0.0870836, 0.0705382, 0.0566503, 0.0451003, 0.0356177, 0.02783, 0.0214473
34,0.599635, 0.46583, 0.373301, 0.303784, 0.249346, 0.205382, 0.169199, 0.139621, 0.114801, 0.0941262, 0.0768672, 0.0623299, 0.0502461, 0.0401636, 0.0317904, 0.0248758, 0.0192241
35,0.607775, 0.475498, 0.383407, 0.314002, 0.259072, 0.214809, 0.178415, 0.148079, 0.122492, 0.101214, 0.0833112, 0.0682341, 0.0555275, 0.0448211, 0.0358686, 0.0284503, 0.0222943
36,0.615944, 0.484672, 0.393238, 0.323885, 0.268837, 0.22401, 0.186876, 0.156196, 0.130253, 0.108397, 0.0898542, 0.074162, 0.0609162, 0.0496469, 0.0402212, 0.032217, 0.0256255, 0.0200785
37,0.623742, 0.493985, 0.402822, 0.333389, 0.278083, 0.233032, 0.195758, 0.164385, 0.137998, 0.115389, 0.0964294, 0.0801154, 0.0663976, 0.0545456, 0.0446645, 0.0361569, 0.029085, 0.0231621
38,0.631105, 0.502669, 0.412032, 0.342582, 0.287298, 0.241848, 0.204093, 0.172327, 0.145409, 0.12254, 0.102983, 0.0861471, 0.0719146, 0.0596546, 0.0492305, 0.0402788, 0.032745, 0.0263863, 0.0209898
39,0.638528, 0.510859, 0.420772, 0.35178, 0.295994, 0.250558, 0.212473, 0.180433, 0.152988, 0.129524, 0.109683, 0.0922411, 0.077385, 0.0647376, 0.0538502, 0.0444871, 0.0364506, 0.0297117, 0.0239537
40,0.645182, 0.519064, 0.429588, 0.360323, 0.304996, 0.259216, 0.220701, 0.188046, 0.160353, 0.136613, 0.116135, 0.0985208, 0.0832296, 0.0700282, 0.0586419, 0.0487465, 0.0403495, 0.0331781, 0.026995, 0.0218234
41,0.651789, 0.526786, 0.437971, 0.369078, 0.313351, 0.267393, 0.228859, 0.195929, 0.167783, 0.143506, 0.12269, 0.10451, 0.0888829, 0.0752675, 0.0632885, 0.0531542, 0.0443774, 0.0367396, 0.0302282, 0.0246912
42,0.658032, 0.53429, 0.446055, 0.37736, 0.3218, 0.275562, 0.236699, 0.20371, 0.175146, 0.150472, 0.129343, 0.110724, 0.0945899, 0.0804418, 0.0682723, 0.05768, 0.0484711, 0.0404739, 0.0335885, 0.0276706, 0.0226246
43,0.664319, 0.54184, 0.453979, 0.385395, 0.329969, 0.283703, 0.24472, 0.211092, 0.182438, 0.157437, 0.135605, 0.116752, 0.100321, 0.0859104, 0.0732243, 0.0622173, 0.0526166, 0.0442836, 0.0370487, 0.0307895, 0.0253514
44,0.670306, 0.548799, 0.461478, 0.39333, 0.337897, 0.291445, 0.252273, 0.21855, 0.189381, 0.164215, 0.142262, 0.122965, 0.106039, 0.0911336, 0.0782615, 0.0669056, 0.0568735, 0.048193, 0.040597, 0.0339781, 0.0282725, 0.0233546
45,0.675924, 0.555538, 0.468982, 0.400849, 0.345551, 0.299087, 0.259967, 0.22591, 0.196567, 0.171031, 0.148644, 0.129098, 0.111786, 0.0965869, 0.0832751, 0.0715346, 0.0612382, 0.0521908, 0.0442485, 0.037324, 0.0312543, 0.026049
46,0.680931, 0.562357, 0.476107, 0.408445, 0.353179, 0.306606, 0.267132, 0.233199, 0.203499, 0.177787, 0.155106, 0.135086, 0.117562, 0.102, 0.0884795, 0.0762241, 0.0656455, 0.0562609, 0.0479611, 0.0407426, 0.0344058, 0.0289039, 0.0240523
47,0.686264, 0.56882, 0.483265, 0.416037, 0.36077, 0.314185, 0.274398, 0.24022, 0.210361, 0.184336, 0.161318, 0.141181, 0.12319, 0.10755, 0.0934792, 0.0810104, 0.0700738, 0.0604029, 0.0517963, 0.0442111, 0.0376254, 0.0317743, 0.0267134
48,0.691632, 0.575179, 0.490384, 0.422954, 0.367684, 0.321341, 0.28165, 0.24711, 0.217084, 0.190825, 0.167629, 0.147046, 0.128975, 0.112794, 0.0984766, 0.0858172, 0.0744371, 0.0645195, 0.0556536, 0.0478101, 0.0408851, 0.0348028, 0.0293943, 0.024718
49,0.696487, 0.581001, 0.496815, 0.429949, 0.374857, 0.328492, 0.288677, 0.254066, 0.223888, 0.197248, 0.173814, 0.152999, 0.134704, 0.118306, 0.103698, 0.090649, 0.0790315, 0.0687965, 0.0595836, 0.0515146, 0.044224, 0.0378506, 0.0322609, 0.0272901
50,0.701157, 0.587208, 0.503051, 0.43669, 0.381801, 0.335252, 0.295497, 0.260839, 0.230639, 0.203843, 0.180122, 0.159026, 0.140306, 0.123567, 0.108809, 0.0954701, 0.0836273, 0.0730488, 0.0635872, 0.0551649, 0.0476987, 0.0410568, 0.0351188, 0.0299571, 0.0253689
55,0.72265, 0.613925, 0.532938, 0.468101, 0.414121, 0.367867, 0.328046, 0.292939, 0.262122, 0.234694, 0.209933, 0.187828, 0.168125, 0.150246, 0.134192, 0.119733, 0.106602, 0.0948307, 0.0840688, 0.0744121, 0.0656837, 0.0578016, 0.0507728, 0.0443707, 0.0386437, 0.0335638, 0.0289553
60,0.740498, 0.635668, 0.556568, 0.493457, 0.440156, 0.39438, 0.354539, 0.31966, 0.288357, 0.260497, 0.235389, 0.212715, 0.192215, 0.173498, 0.156717, 0.141337, 0.127248, 0.11462, 0.103062, 0.0923755, 0.0826887, 0.0739694, 0.065936, 0.058648, 0.0520757, 0.0460814, 0.040667, 0.0357187, 0.0312679, 0.0272815
65,0.756654, 0.656542, 0.580701, 0.518934, 0.466771, 0.421817, 0.38237, 0.347357, 0.315994, 0.287994, 0.26235, 0.239101, 0.218069, 0.198889, 0.181181, 0.165101, 0.150206, 0.136716, 0.124217, 0.112672, 0.102212, 0.0924632, 0.0836484, 0.0754538, 0.0679806, 0.0611249, 0.0547942, 0.0489672, 0.0436894, 0.0389022, 0.0344884, 0.0305408
70,0.770955, 0.674794, 0.601523, 0.541442, 0.490602, 0.446189, 0.40723, 0.372265, 0.341231, 0.312857, 0.287228, 0.263635, 0.242068, 0.222358, 0.204344, 0.18745, 0.17203, 0.157908, 0.144662, 0.132514, 0.121253, 0.110897, 0.101194, 0.0922494, 0.0840917, 0.0764164, 0.0693887, 0.0629526, 0.0569427, 0.0513868, 0.046271, 0.0415761, 0.0372624, 0.033401, 0.02977
75,0.783738, 0.691151, 0.620382, 0.562364, 0.512481, 0.469056, 0.430597, 0.396091, 0.364951, 0.336618, 0.310737, 0.287209, 0.265367, 0.245381, 0.226643, 0.209521, 0.19357, 0.178746, 0.165276, 0.152439, 0.140617, 0.129597, 0.11933, 0.109727, 0.100884, 0.0925414, 0.0848906, 0.0777651, 0.0711524, 0.0649563, 0.0591822, 0.0538399, 0.0488675, 0.0442993, 0.0401196, 0.0362027, 0.0325781
80,0.794877, 0.705663, 0.637253, 0.580455, 0.532016, 0.489221, 0.451275, 0.417242, 0.386335, 0.358203, 0.332358, 0.308609, 0.286728, 0.266397, 0.247541, 0.230065, 0.21382, 0.198732, 0.18444, 0.1713, 0.159047, 0.14753, 0.136671, 0.12667, 0.117284, 0.108408, 0.100206, 0.092475, 0.0853163, 0.0785057, 0.0722388, 0.0664345, 0.0608625, 0.0557894, 0.0510193, 0.0465551, 0.0424452, 0.0386098, 0.0350816, 0.0317293
90,0.813734, 0.731228, 0.666767, 0.613419, 0.56698, 0.526014, 0.48928, 0.45604, 0.425896, 0.397982, 0.372457, 0.348802, 0.326682, 0.306231, 0.286911, 0.269196, 0.252485, 0.236679, 0.221919, 0.208074, 0.195015, 0.182844, 0.171259, 0.16043, 0.150163, 0.140382, 0.131258, 0.122711, 0.11465, 0.106956, 0.0997179, 0.0929467, 0.0865951, 0.0804963, 0.0747967, 0.0694307, 0.0643912, 0.0595792, 0.0551845, 0.0509424, 0.0470314, 0.0432858, 0.0398361, 0.0365744, 0.0335451
100,0.829415, 0.752345, 0.691583, 0.640582, 0.596328, 0.557115, 0.521519, 0.489311, 0.459702, 0.432586, 0.40747, 0.383804, 0.361949, 0.341619, 0.322376, 0.304353, 0.287335, 0.271301, 0.256298, 0.242037, 0.228451, 0.215784, 0.203693, 0.192179, 0.181485, 0.171194, 0.161502, 0.152178, 0.143391, 0.135024, 0.127192, 0.11961, 0.1125, 0.10582, 0.099343, 0.0932579, 0.0874749, 0.08193, 0.0767686, 0.0718085, 0.0671573, 0.0626785, 0.05854, 0.054553, 0.0508427, 0.0472727, 0.0439013, 0.0407616, 0.0377763, 0.0349849
