3,4.48937e-07
4,4.33589e-05, 1.3727e-07
5,0.000160507, 1.29077e-05
6,0.000270246, 6.63808e-05, 7.35411e-06
7,0.000339389, 0.00012408, 3.55229e-05
8,0.000414788, 0.000196822, 8.52002e-05, 2.44374e-05
9,0.000481537, 0.000262488, 0.000125314, 5.38315e-05
10,0.000488941, 0.000285359, 0.000166053, 9.76453e-05, 4.20555e-05
11,0.00050372, 0.000317371, 0.000187356, 0.000122245, 6.8153e-05
12,0.000485092, 0.000342901, 0.000230614, 0.000137743, 9.63744e-05, 5.435e-05
13,0.000491601, 0.000382327, 0.000234931, 0.000173849, 0.000118723, 7.33188e-05
14,0.000552511, 0.000340695, 0.000275051, 0.000191339, 0.000143042, 9.21948e-05, 6.78919e-05
15,0.000500238, 0.00035809, 0.000321901, 0.00020993, 0.000162194, 0.000115271, 7.76014e-05
16,0.000548862, 0.000391781, 0.000280079, 0.000238482, 0.000174962, 0.000132615, 9.95077e-05, 6.76528e-05
17,0.000472959, 0.000331537, 0.000296451, 0.000239912, 0.00019635, 0.000150037, 0.000113001, 8.35176e-05
18,0.000440957, 0.000413998, 0.000284701, 0.000248852, 0.000195098, 0.000165688, 0.000126611, 0.000104456, 6.84546e-05
19,0.000471367, 0.000372788, 0.00030505, 0.000248703, 0.000236393, 0.000174461, 0.000139358, 0.000109004, 8.22331e-05
20,0.000453171, 0.000408404, 0.000322413, 0.000245825, 0.000240984, 0.000192, 0.000169847, 0.000118831, 0.000104873, 8.42257e-05
21,0.000446683, 0.000377116, 0.000316113, 0.000256466, 0.000234668, 0.000183375, 0.000163119, 0.000128457, 0.000111897, 9.2446e-05
22,0.00046499, 0.000343137, 0.000298825, 0.000277071, 0.000238257, 0.000206179, 0.000155357, 0.000136639, 0.00011295, 0.000100882, 8.01546e-05
23,0.000430708, 0.000383222, 0.000341134, 0.000282244, 0.000250447, 0.00018466, 0.000189632, 0.000160481, 0.000124825, 0.000114183, 8.87338e-05
24,0.000398129, 0.000354275, 0.000312532, 0.000301804, 0.000251311, 0.00022832, 0.000199532, 0.000159812, 0.000143809, 0.000108335, 0.000107937, 8.00377e-05
25,0.000419996, 0.000344666, 0.000306427, 0.00028775, 0.000246608, 0.000218413, 0.000205452, 0.000169357, 0.000162291, 0.000133667, 0.000103091, 0.000102995
26,0.000334588, 0.000322928, 0.000316045, 0.00027477, 0.000269152, 0.000230235, 0.000202543, 0.000174522, 0.000146644, 0.00015083, 0.00011536, 9.5249e-05, 8.66268e-05
27,0.000381877, 0.000343794, 0.000306831, 0.000278497, 0.000257417, 0.000241935, 0.000212278, 0.00018345, 0.000157378, 0.000155153, 0.000116695, 0.000112827, 8.97236e-05
28,0.000370121, 0.000325569, 0.000301486, 0.000268615, 0.000262665, 0.000237064, 0.000234825, 0.000184388, 0.00015392, 0.000134573, 0.000138126, 0.000113849, 9.9189e-05, 8.43466e-05
29,0.000386738, 0.000303917, 0.000316508, 0.000268902, 0.000232218, 0.000228587, 0.00020391, 0.000194304, 0.000160545, 0.00015651, 0.000152651, 0.000125234, 0.000109422, 9.09364e-05
30,0.000338178, 0.000318439, 0.000305353, 0.000280569, 0.000233238, 0.000229267, 0.000213042, 0.000183013, 0.000183665, 0.000166611, 0.000146168, 0.000128824, 0.000103589, 9.16382e-05, 8.95819e-05
31,0.000357211, 0.000328144, 0.000314609, 0.00031308, 0.000255887, 0.000213174, 0.00021327, 0.000204415, 0.000166928, 0.000144201, 0.000141506, 0.000141678, 0.000112434, 9.77158e-05, 9.28021e-05
32,0.000321199, 0.000324942, 0.000303417, 0.000270648, 0.000275392, 0.000236994, 0.000210906, 0.000178847, 0.000187769, 0.000171222, 0.000146106, 0.000152721, 0.000133216, 0.000105914, 9.61891e-05, 8.42383e-05
33,0.000357772, 0.000312355, 0.000284238, 0.000266153, 0.000271928, 0.000255502, 0.000232893, 0.000219633, 0.000171784, 0.000178748, 0.000160811, 0.000146625, 0.000125854, 0.000118884, 0.000108465, 9.45368e-05
34,0.000306048, 0.000332884, 0.000290857, 0.000283598, 0.00027523, 0.000221559, 0.000217733, 0.000197124, 0.000203425, 0.000185457, 0.000165149, 0.000144749, 0.000123123, 0.000114668, 0.000107583, 9.70289e-05, 8.45826e-05
35,0.000300676, 0.000312835, 0.000289096, 0.000258304, 0.000251564, 0.000224284, 0.000240853, 0.000195214, 0.000205995, 0.000175481, 0.000146143, 0.000145555, 0.000147525, 0.000125307, 0.000109274, 0.000109434, 9.98063e-05
36,0.000332693, 0.000260991, 0.000254033, 0.000274566, 0.000253857, 0.000240859, 0.000212234, 0.000211252, 0.000194865, 0.000184827, 0.000167132, 0.000153477, 0.00013011, 0.000128066, 0.000111052, 0.000107268, 9.80674e-05, 8.12291e-05
37,0.000303539, 0.000302991, 0.000291629, 0.000292035, 0.00023738, 0.00023521, 0.00021843, 0.000215377, 0.000200013, 0.000183641, 0.000178101, 0.000150608, 0.000142297, 0.000122537, 0.000124971, 0.000107671, 0.000102404, 9.15998e-05
38,0.000287385, 0.000284714, 0.000254132, 0.000251954, 0.000259463, 0.000234212, 0.000217359, 0.000216085, 0.000199736, 0.000194824, 0.000173428, 0.000151871, 0.000156281, 0.000138138, 0.00012644, 0.000121151, 9.92854e-05, 8.94198e-05, 8.56801e-05
39,0.000267789, 0.000273411, 0.000299575, 0.000270759, 0.000223305, 0.000221362, 0.000226995, 0.000189993, 0.000184782, 0.000177818, 0.000176616, 0.000160229, 0.000143491, 0.000151643, 0.000124791, 0.000124613, 0.000108382, 9.51461e-05, 8.8804e-05
40,0.000290422, 0.000292514, 0.000267024, 0.00026747, 0.000237633, 0.000238725, 0.000224726, 0.000209749, 0.000182302, 0.00019301, 0.000183799, 0.000154072, 0.000140851, 0.000148666, 0.000134833, 0.000112237, 0.000124369, 0.000106825, 9.42988e-05, 8.34327e-05
41,0.000283403, 0.000274999, 0.000271936, 0.000260488, 0.000255744, 0.000235494, 0.000234137, 0.000203085, 0.000198514, 0.0001877, 0.000166277, 0.000167837, 0.000161272, 0.000145678, 0.000130488, 0.000125803, 0.000121868, 9.90654e-05, 9.71441e-05, 9.30166e-05
42,0.00029012, 0.000286512, 0.000242478, 0.000251575, 0.000224144, 0.000236105, 0.000208109, 0.000209613, 0.000189188, 0.000182283, 0.000182471, 0.000166302, 0.000170226, 0.000143916, 0.000132852, 0.000121311, 0.000125606, 0.000112761, 0.000104372, 9.99526e-05, 8.17168e-05
43,0.000254359, 0.000267194, 0.000257233, 0.000268015, 0.000246589, 0.000226307, 0.000228682, 0.000210012, 0.00020316, 0.000213477, 0.000177086, 0.000162339, 0.000154463, 0.000149386, 0.000138763, 0.000137679, 0.000124065, 0.000108776, 0.000118893, 9.57762e-05, 8.58452e-05
44,0.00027536, 0.000255644, 0.000265699, 0.000263354, 0.000245578, 0.000210552, 0.000216203, 0.000227172, 0.000211206, 0.000190437, 0.000158677, 0.000175324, 0.000172376, 0.000154602, 0.000131373, 0.000144007, 0.000124247, 0.000118464, 0.000111809, 0.000106299, 9.07603e-05, 8.70459e-05
45,0.000245171, 0.000253774, 0.000248709, 0.000253992, 0.000244504, 0.00024527, 0.00023375, 0.000232381, 0.000191054, 0.000182229, 0.000182177, 0.000165152, 0.000167212, 0.000152053, 0.000143061, 0.000153979, 0.000133616, 0.000125905, 0.000108385, 0.000102099, 9.99396e-05, 8.92971e-05
46,0.000259884, 0.000257572, 0.000252457, 0.000251254, 0.000238709, 0.000220411, 0.000236703, 0.000202976, 0.000200469, 0.000173087, 0.000167893, 0.000182223, 0.000154043, 0.000142948, 0.000155888, 0.000133814, 0.000136266, 0.000119669, 0.000103408, 0.000104098, 0.000105288, 9.41375e-05, 9.70105e-05
47,0.000256745, 0.000246439, 0.000270154, 0.000252206, 0.000260141, 0.000244498, 0.000225457, 0.000238971, 0.000191194, 0.000183792, 0.000171856, 0.00017641, 0.000152449, 0.000177152, 0.000148318, 0.000138306, 0.000131309, 0.000135555, 0.000110657, 0.00010853, 0.000102884, 9.18802e-05, 9.30657e-05
48,0.000228167, 0.000227068, 0.000232236, 0.000248155, 0.000231101, 0.000235929, 0.000222708, 0.000207872, 0.000191443, 0.000172167, 0.000180942, 0.000169313, 0.000148657, 0.000156379, 0.000151723, 0.000136533, 0.000134227, 0.00012993, 0.000126792, 0.000118313, 0.000108088, 0.000100325, 9.44275e-05, 8.42878e-05
49,0.000248409, 0.000248507, 0.000243059, 0.000237097, 0.000240911, 0.000229308, 0.000216175, 0.00022513, 0.0001935, 0.000198206, 0.000181001, 0.000180637, 0.000154941, 0.000165927, 0.000139511, 0.000138959, 0.00013161, 0.000121923, 0.000106169, 0.000114205, 0.000117131, 9.87592e-05, 9.458e-05, 9.5581e-05
50,0.000246483, 0.000239913, 0.000246256, 0.000246089, 0.000214765, 0.000227543, 0.000205142, 0.000201265, 0.000216116, 0.00020032, 0.000181749, 0.00018353, 0.000161902, 0.000158699, 0.000171055, 0.000148547, 0.000139366, 0.000136774, 0.000129645, 0.000118159, 0.000110927, 0.00010831, 9.37264e-05, 9.1508e-05, 8.0843e-05
55,0.000257305, 0.0002257, 0.00023532, 0.000243313, 0.000220704, 0.000213147, 0.000196067, 0.000199965, 0.000199782, 0.000197734, 0.000206822, 0.000173519, 0.000183778, 0.00017548, 0.000150576, 0.000150966, 0.000143408, 0.000141924, 0.000129325, 0.000124054, 0.000128894, 0.000116355, 0.000120225, 0.000108157, 9.97996e-05, 9.95203e-05, 8.79522e-05
60,0.000208385, 0.00023985, 0.000211586, 0.000220342, 0.000218212, 0.000217269, 0.000220307, 0.000211963, 0.000202889, 0.000191347, 0.000190917, 0.000177452, 0.000178558, 0.000175173, 0.000154741, 0.000158457, 0.000135454, 0.000152702, 0.000130141, 0.000130057, 0.000117439, 0.000131211, 0.000110231, 0.000125524, 0.000116247, 0.000108724, 9.25241e-05, 9.24221e-05, 8.7752e-05, 6.98724e-05
65,0.00019042, 0.000209547, 0.000212836, 0.000229787, 0.000235885, 0.000193806, 0.000218259, 0.000198817, 0.00019086, 0.000189876, 0.000192171, 0.000174107, 0.000165394, 0.000181229, 0.000164779, 0.000173205, 0.000144365, 0.000153026, 0.000147138, 0.000137933, 0.000136456, 0.000126896, 0.000131373, 0.000123226, 0.000117114, 0.00011541, 0.000105053, 0.000100234, 9.41772e-05, 9.0237e-05, 8.52521e-05, 8.67523e-05
70,0.000197131, 0.000189357, 0.000186164, 0.000195928, 0.000201396, 0.000200885, 0.000201993, 0.000190235, 0.000176512, 0.000159803, 0.000185386, 0.000166517, 0.000171644, 0.00015405, 0.000161551, 0.000168858, 0.00014156, 0.000143402, 0.000141286, 0.00015242, 0.000136439, 0.00013445, 0.000116619, 0.000124422, 0.000116754, 0.000119203, 0.000110862, 0.000105981, 9.99663e-05, 0.000105718, 9.17511e-05, 9.58265e-05, 8.84021e-05, 8.71254e-05, 7.75318e-05
75,0.000181617, 0.000160959, 0.000200274, 0.000189876, 0.000199444, 0.00019528, 0.000188425, 0.000168027, 0.000160169, 0.000183126, 0.000170554, 0.000166958, 0.000165938, 0.00014869, 0.000153942, 0.000148696, 0.000146907, 0.000149354, 0.000151359, 0.00013731, 0.000132605, 0.000134655, 0.000138657, 0.000138874, 0.000122842, 0.000119461, 0.000118362, 0.000112901, 0.000111519, 0.000108779, 0.000104867, 9.29154e-05, 9.63782e-05, 8.96738e-05, 7.97708e-05, 8.66661e-05, 8.00384e-05
80,0.000156503, 0.000188873, 0.000181592, 0.000179942, 0.000183785, 0.000189563, 0.000182492, 0.000184929, 0.000173704, 0.000192251, 0.000181623, 0.000177366, 0.000166291, 0.000150244, 0.000156201, 0.000153579, 0.0001486, 0.000153887, 0.000142914, 0.000143684, 0.000132981, 0.000142067, 0.000127227, 0.00013069, 0.000125775, 0.000126835, 0.000120177, 0.000113276, 0.000106862, 0.000111848, 0.000105405, 9.64995e-05, 0.000100763, 9.51403e-05, 9.10482e-05, 9.91355e-05, 9.3243e-05, 8.06277e-05, 8.43434e-05, 8.04779e-05
90,0.000165922, 0.000164444, 0.00015909, 0.000157574, 0.000182876, 0.000174588, 0.000180684, 0.000164017, 0.000180299, 0.000178287, 0.000171002, 0.000157254, 0.000162897, 0.000171083, 0.00016773, 0.00015592, 0.000146333, 0.000141987, 0.00014719, 0.000145185, 0.00015, 0.000139621, 0.000141915, 0.000137643, 0.000135595, 0.000116205, 0.000116399, 0.000120253, 0.000120414, 0.000109378, 0.000116111, 0.000103298, 0.000103147, 0.000106784, 0.000101953, 9.95861e-05, 9.1897e-05, 9.38441e-05, 8.68353e-05, 9.47076e-05, 8.26209e-05, 8.06628e-05, 8.36997e-05, 7.29091e-05, 7.73669e-05
100,0.000137815, 0.000164477, 0.000148985, 0.000149093, 0.000158757, 0.000163876, 0.000144512, 0.000168398, 0.000157153, 0.000157447, 0.000153734, 0.000155992, 0.000154678, 0.000165653, 0.000149609, 0.000137815, 0.000144459, 0.000146351, 0.000147059, 0.00014012, 0.000145499, 0.000131882, 0.000139684, 0.000127962, 0.000130629, 0.00011929, 0.00013636, 0.000122028, 0.000121026, 0.000121114, 0.000113849, 0.000112341, 0.000119017, 0.000103383, 0.000107919, 0.00011808, 0.000103406, 9.90703e-05, 8.83424e-05, 0.00010232, 8.83677e-05, 0.000102857, 8.70534e-05, 9.1244e-05, 8.01008e-05, 7.33399e-05, 6.93563e-05, 7.86272e-05, 7.89489e-05, 6.87766e-05
