3,0.0431388
4,0.190094, 0.0128799
5,0.306391, 0.0786289
6,0.390006, 0.152059, 0.0444739
7,0.452152, 0.216578, 0.0937413
8,0.500539, 0.271629, 0.142324, 0.0650238
9,0.539411, 0.31829, 0.186807, 0.102497
10,0.571509, 0.358468, 0.227022, 0.138911, 0.0783658
11,0.598526, 0.393333, 0.263054, 0.172835, 0.108472
12,0.62188, 0.423902, 0.295637, 0.204505, 0.137573, 0.0878723
13,0.642187, 0.45111, 0.324937, 0.233794, 0.165253, 0.112962
14,0.660089, 0.475454, 0.351626, 0.260854, 0.191448, 0.137367, 0.0950516
15,0.675885, 0.497266, 0.375986, 0.285812, 0.215989, 0.160776, 0.116686
16,0.690116, 0.517102, 0.398202, 0.308959, 0.239086, 0.183062, 0.137652, 0.100743
17,0.702923, 0.535135, 0.41862, 0.330401, 0.260634, 0.20418, 0.157925, 0.119721
18,0.714629, 0.551564, 0.437437, 0.350357, 0.280989, 0.224255, 0.177379, 0.138174, 0.105484
19,0.725196, 0.566797, 0.454978, 0.368925, 0.300003, 0.243224, 0.195937, 0.156059, 0.122357
20,0.734929, 0.580769, 0.47119, 0.386373, 0.317986, 0.261317, 0.213697, 0.17328, 0.138846, 0.109386
21,0.743886, 0.593782, 0.486333, 0.402711, 0.334827, 0.278418, 0.230637, 0.189877, 0.154818, 0.124662
22,0.752255, 0.605801, 0.500543, 0.41803, 0.350838, 0.294617, 0.246821, 0.205812, 0.170296, 0.139523, 0.112799
23,0.759919, 0.617092, 0.51377, 0.432506, 0.365923, 0.310005, 0.2623, 0.221074, 0.185272, 0.154056, 0.12669
24,0.767066, 0.62759, 0.526187, 0.446022, 0.380173, 0.324637, 0.276965, 0.235739, 0.199751, 0.168125, 0.140268, 0.115771
25,0.773788, 0.637465, 0.537819, 0.458881, 0.393762, 0.338602, 0.291141, 0.249872, 0.213649, 0.181775, 0.153517, 0.128543
26,0.78002, 0.646761, 0.548891, 0.471035, 0.406607, 0.351859, 0.304662, 0.2634, 0.227113, 0.194948, 0.166424, 0.141009, 0.118378
27,0.785911, 0.655496, 0.559322, 0.482597, 0.418808, 0.364534, 0.31751, 0.276305, 0.240035, 0.207729, 0.178915, 0.1532, 0.13018
28,0.791428, 0.663756, 0.569228, 0.493548, 0.430468, 0.37659, 0.329855, 0.288789, 0.252446, 0.220098, 0.191091, 0.165098, 0.141708, 0.120693
29,0.796693, 0.671505, 0.578651, 0.504028, 0.441584, 0.388251, 0.341715, 0.300812, 0.264532, 0.231993, 0.20294, 0.17667, 0.153028, 0.131691
30,0.801568, 0.678905, 0.587489, 0.51386, 0.452173, 0.399254, 0.353081, 0.312325, 0.276058, 0.243625, 0.214351, 0.187978, 0.164061, 0.14244, 0.122775
31,0.806236, 0.685919, 0.595923, 0.523319, 0.462332, 0.409884, 0.364044, 0.323483, 0.287276, 0.254787, 0.225501, 0.198976, 0.17487, 0.152989, 0.13302
32,0.810604, 0.692586, 0.604035, 0.532336, 0.472004, 0.420089, 0.37447, 0.334129, 0.298061, 0.265628, 0.236261, 0.209602, 0.185354, 0.163286, 0.143092, 0.124668
33,0.814848, 0.698935, 0.611724, 0.541028, 0.481359, 0.429807, 0.384614, 0.344453, 0.308425, 0.276079, 0.246662, 0.219968, 0.195618, 0.173325, 0.15297, 0.134284
34,0.818824, 0.704907, 0.619065, 0.549255, 0.49022, 0.439156, 0.39434, 0.354366, 0.318548, 0.286182, 0.256837, 0.230043, 0.205561, 0.183132, 0.162622, 0.143752, 0.126351
35,0.8226, 0.710725, 0.62612, 0.557218, 0.49875, 0.448221, 0.403641, 0.363968, 0.328288, 0.295963, 0.266664, 0.239853, 0.21528, 0.192767, 0.17206, 0.152963, 0.135429
36,0.82624, 0.716289, 0.632846, 0.564784, 0.507047, 0.456877, 0.412668, 0.373144, 0.337681, 0.305512, 0.276163, 0.249346, 0.224777, 0.202138, 0.181277, 0.162134, 0.144345, 0.1279
37,0.829657, 0.721559, 0.639296, 0.572082, 0.514936, 0.465239, 0.421305, 0.382121, 0.346798, 0.314685, 0.285421, 0.258613, 0.233992, 0.211293, 0.190355, 0.171014, 0.153129, 0.136506
38,0.832959, 0.726536, 0.64554, 0.579085, 0.522565, 0.473269, 0.429707, 0.390776, 0.355615, 0.323639, 0.294403, 0.267626, 0.242981, 0.220253, 0.199208, 0.17976, 0.161701, 0.144952, 0.129364
39,0.836102, 0.731398, 0.651474, 0.585827, 0.529873, 0.481166, 0.437891, 0.39917, 0.364195, 0.332284, 0.303169, 0.276482, 0.251743, 0.228979, 0.207858, 0.188274, 0.170122, 0.153257, 0.1375
40,0.839146, 0.736086, 0.657208, 0.59231, 0.536976, 0.488634, 0.445701, 0.407263, 0.372439, 0.340726, 0.311642, 0.284953, 0.260227, 0.237439, 0.21631, 0.196644, 0.178386, 0.161368, 0.145497, 0.130684
41,0.842047, 0.740589, 0.662726, 0.598618, 0.543835, 0.495932, 0.453298, 0.415075, 0.380415, 0.348841, 0.319881, 0.293265, 0.268597, 0.245761, 0.224562, 0.204846, 0.186479, 0.169363, 0.153362, 0.138426
42,0.844859, 0.744803, 0.668051, 0.604639, 0.550416, 0.502938, 0.460715, 0.422659, 0.388234, 0.356752, 0.327963, 0.301256, 0.276713, 0.253885, 0.232653, 0.212894, 0.194392, 0.177182, 0.161122, 0.146045, 0.131967
43,0.847505, 0.748992, 0.673114, 0.610413, 0.556775, 0.50968, 0.467782, 0.430071, 0.395771, 0.364486, 0.335702, 0.309164, 0.284604, 0.261759, 0.240528, 0.220731, 0.202219, 0.184883, 0.168697, 0.15356, 0.13929
44,0.850092, 0.75296, 0.678089, 0.616114, 0.562955, 0.516256, 0.474629, 0.437282, 0.40312, 0.371948, 0.343294, 0.316827, 0.292299, 0.269468, 0.248248, 0.228395, 0.209833, 0.192493, 0.17615, 0.160878, 0.146567, 0.133076
45,0.852535, 0.756799, 0.682894, 0.621543, 0.568905, 0.522702, 0.481336, 0.444048, 0.410214, 0.379231, 0.350687, 0.324325, 0.299788, 0.277022, 0.255804, 0.235959, 0.217303, 0.199861, 0.183521, 0.168134, 0.15371, 0.140097
46,0.854958, 0.76052, 0.687465, 0.626843, 0.574661, 0.528809, 0.487824, 0.450838, 0.417178, 0.386336, 0.357916, 0.331599, 0.307138, 0.284422, 0.263178, 0.243229, 0.22464, 0.207123, 0.190706, 0.175282, 0.160723, 0.147062, 0.134174
47,0.857241, 0.764125, 0.691884, 0.631872, 0.580266, 0.534818, 0.494114, 0.457469, 0.42389, 0.393235, 0.364959, 0.338684, 0.314305, 0.291573, 0.270357, 0.250465, 0.2318, 0.214277, 0.197793, 0.182272, 0.167677, 0.153902, 0.140879
48,0.859434, 0.767568, 0.69625, 0.636846, 0.585667, 0.540591, 0.500275, 0.463737, 0.430497, 0.399938, 0.371685, 0.345612, 0.321289, 0.298587, 0.277397, 0.257478, 0.238829, 0.221264, 0.204741, 0.189154, 0.174477, 0.160625, 0.147533, 0.135171
49,0.861592, 0.770892, 0.700394, 0.64165, 0.590957, 0.546242, 0.506229, 0.469957, 0.436876, 0.406465, 0.378381, 0.352351, 0.328115, 0.305442, 0.284281, 0.264396, 0.245701, 0.228154, 0.211589, 0.195933, 0.181185, 0.167241, 0.154051, 0.141639
50,0.863676, 0.774118, 0.704374, 0.646253, 0.59601, 0.55167, 0.511972, 0.475934, 0.443037, 0.412806, 0.384859, 0.358896, 0.334719, 0.312141, 0.291011, 0.271058, 0.252393, 0.234815, 0.218247, 0.202606, 0.187745, 0.17379, 0.160537, 0.147963, 0.136097
55,0.873014, 0.78886, 0.722835, 0.667505, 0.619472, 0.576897, 0.538582, 0.503767, 0.471848, 0.442383, 0.415046, 0.389583, 0.365772, 0.343541, 0.322609, 0.302842, 0.284189, 0.266572, 0.249933, 0.234108, 0.219148, 0.204929, 0.1914, 0.178509, 0.166329, 0.154659, 0.14355
60,0.881105, 0.801543, 0.738824, 0.686016, 0.639949, 0.59899, 0.562015, 0.528321, 0.497259, 0.468583, 0.44193, 0.417034, 0.393683, 0.371713, 0.351046, 0.33149, 0.313035, 0.295511, 0.27886, 0.263015, 0.247986, 0.233673, 0.219991, 0.206971, 0.194504, 0.182616, 0.171252, 0.160422, 0.150037, 0.140121
65,0.888068, 0.812646, 0.752838, 0.702276, 0.657992, 0.618506, 0.582787, 0.550122, 0.520024, 0.492076, 0.466019, 0.441691, 0.418821, 0.397206, 0.376836, 0.357579, 0.339262, 0.321879, 0.305344, 0.289547, 0.274551, 0.260187, 0.246468, 0.233328, 0.220795, 0.208764, 0.197236, 0.186179, 0.175552, 0.1654, 0.15565, 0.146273
70,0.894199, 0.822407, 0.765251, 0.716698, 0.67408, 0.636, 0.601389, 0.569697, 0.540461, 0.513216, 0.487803, 0.463975, 0.441549, 0.420358, 0.400322, 0.381326, 0.363245, 0.346061, 0.329664, 0.313989, 0.29902, 0.284723, 0.27102, 0.257872, 0.24524, 0.23315, 0.221529, 0.210391, 0.199619, 0.189325, 0.179373, 0.169787, 0.160578, 0.151736, 0.143193
75,0.899622, 0.831126, 0.776284, 0.729567, 0.688489, 0.651657, 0.61816, 0.587382, 0.558897, 0.532402, 0.507601, 0.484289, 0.462277, 0.441514, 0.421789, 0.403071, 0.385247, 0.368261, 0.352041, 0.336546, 0.321666, 0.307432, 0.293757, 0.280672, 0.268084, 0.255932, 0.244277, 0.233045, 0.222237, 0.211793, 0.201757, 0.192053, 0.182702, 0.173684, 0.164984, 0.156585, 0.148447
80,0.904458, 0.838864, 0.786189, 0.741171, 0.70152, 0.66588, 0.633393, 0.60347, 0.575748, 0.549877, 0.525616, 0.502865, 0.481297, 0.460886, 0.441557, 0.423104, 0.405574, 0.388808, 0.372764, 0.357436, 0.342673, 0.328547, 0.31498, 0.301948, 0.289391, 0.277261, 0.265606, 0.254328, 0.243495, 0.233005, 0.222904, 0.213116, 0.203715, 0.194545, 0.185762, 0.177218, 0.168929, 0.160933, 0.153201, 0.145727
90,0.912745, 0.85226, 0.803319, 0.761352, 0.724145, 0.690518, 0.659882, 0.631515, 0.605186, 0.580515, 0.557392, 0.535505, 0.514869, 0.495217, 0.476498, 0.458715, 0.441641, 0.425384, 0.409754, 0.394765, 0.380338, 0.366462, 0.353116, 0.340239, 0.32784, 0.315859, 0.304272, 0.293062, 0.282266, 0.271743, 0.261665, 0.251788, 0.242296, 0.233042, 0.224078, 0.215391, 0.206999, 0.198782, 0.190845, 0.183116, 0.175654, 0.168387, 0.161313, 0.154458, 0.147773
100,0.919571, 0.863357, 0.817619, 0.778174, 0.74312, 0.711377, 0.682274, 0.655374, 0.63024, 0.606704, 0.584514, 0.563551, 0.543701, 0.524738, 0.506715, 0.48945, 0.472975, 0.457164, 0.44196, 0.42732, 0.413248, 0.39971, 0.386626, 0.373997, 0.361767, 0.349964, 0.338522, 0.327447, 0.316707, 0.306332, 0.296227, 0.286397, 0.276878, 0.267607, 0.258675, 0.249938, 0.241447, 0.233186, 0.225177, 0.217347, 0.20972, 0.202329, 0.195082, 0.188055, 0.181229, 0.17457, 0.168055, 0.161724, 0.15554, 0.149537
