3,0.00273806
4,0.0494758, 0.000763953
5,0.127099, 0.0182948
6,0.203125, 0.0564211, 0.00987544
7,0.269494, 0.101899, 0.0330122
8,0.326092, 0.147811, 0.0635888, 0.0221958
9,0.374258, 0.190914, 0.0966269, 0.0443176
10,0.415459, 0.230557, 0.129843, 0.0694797, 0.0330621
11,0.451001, 0.266784, 0.161726, 0.0956925, 0.0529544
12,0.482248, 0.299724, 0.192175, 0.1219, 0.0743579, 0.0421168
13,0.509631, 0.329417, 0.220712, 0.14752, 0.0962742, 0.059915
14,0.534072, 0.356874, 0.247404, 0.172205, 0.118105, 0.0785834, 0.0496481
15,0.555885, 0.381826, 0.272353, 0.195864, 0.139418, 0.097463, 0.065769
16,0.575523, 0.404847, 0.295623, 0.218065, 0.160315, 0.116242, 0.0821702, 0.0560483
17,0.593203, 0.425881, 0.317467, 0.23951, 0.180359, 0.134699, 0.0988195, 0.0705885
18,0.609456, 0.44528, 0.337726, 0.259545, 0.199714, 0.152749, 0.115375, 0.085424, 0.0615743
19,0.624261, 0.463546, 0.357013, 0.278581, 0.218184, 0.170253, 0.131662, 0.100335, 0.0749214
20,0.637825, 0.480378, 0.374903, 0.296694, 0.235959, 0.187226, 0.147592, 0.115102, 0.0883875, 0.0663539
21,0.650315, 0.496035, 0.391814, 0.313919, 0.252859, 0.203584, 0.163201, 0.129729, 0.101895, 0.0786441
22,0.662014, 0.51065, 0.407788, 0.330162, 0.268998, 0.219406, 0.178364, 0.144084, 0.115216, 0.0910018, 0.0706221
23,0.672747, 0.524411, 0.422595, 0.34562, 0.284448, 0.234554, 0.193006, 0.158087, 0.128438, 0.103369, 0.0819864
24,0.682826, 0.537359, 0.436985, 0.360363, 0.299316, 0.249165, 0.207187, 0.171716, 0.141516, 0.115601, 0.0934306, 0.074434
25,0.692329, 0.549414, 0.450296, 0.374339, 0.313529, 0.263211, 0.220993, 0.185063, 0.154248, 0.127727, 0.104782, 0.0850244
26,0.701076, 0.560923, 0.462925, 0.38784, 0.327048, 0.276733, 0.234254, 0.198009, 0.166745, 0.139647, 0.116151, 0.0956339, 0.0778225
27,0.709224, 0.571647, 0.475008, 0.400496, 0.340022, 0.289755, 0.247135, 0.210592, 0.178891, 0.151335, 0.127299, 0.106211, 0.0877687
28,0.717013, 0.581831, 0.486604, 0.412577, 0.352467, 0.302225, 0.259581, 0.222807, 0.190798, 0.162829, 0.138317, 0.116681, 0.0976785, 0.0808887
29,0.724312, 0.591508, 0.497438, 0.424175, 0.364471, 0.314396, 0.271579, 0.234548, 0.202412, 0.174122, 0.149146, 0.127067, 0.107571, 0.0902667
30,0.731211, 0.600801, 0.507849, 0.435226, 0.37585, 0.325907, 0.283203, 0.246088, 0.213631, 0.185089, 0.159757, 0.137283, 0.117304, 0.0995362, 0.0837643
31,0.737704, 0.609485, 0.517786, 0.445863, 0.386902, 0.337168, 0.294441, 0.257217, 0.224678, 0.195824, 0.170231, 0.14742, 0.127027, 0.108851, 0.092571
32,0.743906, 0.617801, 0.527293, 0.45599, 0.397386, 0.347922, 0.305218, 0.268066, 0.235276, 0.20632, 0.180432, 0.157303, 0.136571, 0.118031, 0.101349, 0.0863572
33,0.749861, 0.625755, 0.536312, 0.465841, 0.407624, 0.358284, 0.315743, 0.278555, 0.245602, 0.216524, 0.190455, 0.167008, 0.146035, 0.127077, 0.110068, 0.0946554
34,0.755428, 0.633323, 0.544934, 0.475179, 0.417432, 0.36835, 0.325912, 0.288697, 0.255785, 0.226454, 0.200205, 0.176566, 0.155321, 0.136009, 0.118646, 0.102983, 0.088717
35,0.760677, 0.640444, 0.553223, 0.484237, 0.426765, 0.378129, 0.33575, 0.298505, 0.265539, 0.236158, 0.209788, 0.185969, 0.164402, 0.144934, 0.127224, 0.111163, 0.0966407
36,0.765834, 0.647467, 0.561326, 0.49286, 0.435993, 0.38737, 0.345227, 0.308063, 0.275135, 0.245672, 0.219088, 0.19506, 0.173393, 0.153625, 0.1357, 0.119405, 0.104493, 0.0909235
37,0.770651, 0.654018, 0.56898, 0.501261, 0.444817, 0.396483, 0.354434, 0.317382, 0.284452, 0.254839, 0.228166, 0.204093, 0.182195, 0.16227, 0.144052, 0.127519, 0.112326, 0.0985068
38,0.775245, 0.660359, 0.576368, 0.509233, 0.453172, 0.40519, 0.36331, 0.326341, 0.293434, 0.263811, 0.237077, 0.212896, 0.190811, 0.170736, 0.152351, 0.135504, 0.120061, 0.105982, 0.0929889
39,0.779648, 0.6665, 0.583491, 0.516952, 0.461391, 0.413783, 0.372031, 0.335211, 0.302208, 0.272605, 0.245769, 0.221571, 0.199309, 0.179028, 0.160466, 0.143398, 0.127776, 0.113442, 0.100189
40,0.783909, 0.672381, 0.590303, 0.52439, 0.469346, 0.421878, 0.380421, 0.343686, 0.310746, 0.2812, 0.254315, 0.229946, 0.20754, 0.18713, 0.168387, 0.151171, 0.135342, 0.120772, 0.107298, 0.0949149
41,0.787921, 0.678067, 0.596886, 0.531694, 0.47695, 0.4299, 0.388544, 0.351933, 0.319072, 0.289411, 0.262632, 0.238173, 0.215725, 0.19521, 0.176307, 0.158903, 0.142857, 0.128075, 0.11441, 0.101764
42,0.791787, 0.683399, 0.603189, 0.538668, 0.484388, 0.437584, 0.396557, 0.359882, 0.327212, 0.297564, 0.270786, 0.246155, 0.223693, 0.203058, 0.184026, 0.166468, 0.15029, 0.135271, 0.121456, 0.108601, 0.0967589
43,0.795551, 0.688673, 0.609339, 0.545424, 0.491568, 0.444973, 0.404164, 0.367799, 0.335091, 0.305506, 0.278636, 0.254062, 0.231525, 0.210779, 0.191593, 0.173955, 0.157578, 0.142398, 0.128409, 0.115412, 0.103281
44,0.799134, 0.693716, 0.615261, 0.551856, 0.498482, 0.452207, 0.411551, 0.375436, 0.342773, 0.313274, 0.286406, 0.261753, 0.239165, 0.21834, 0.199105, 0.181278, 0.164803, 0.14949, 0.135273, 0.12211, 0.109822, 0.0984044
45,0.802599, 0.698463, 0.621086, 0.558211, 0.505217, 0.459311, 0.418796, 0.382763, 0.350236, 0.320839, 0.293934, 0.269318, 0.246605, 0.225755, 0.206454, 0.188543, 0.171922, 0.156479, 0.142114, 0.128723, 0.116307, 0.104699
46,0.80594, 0.703137, 0.626535, 0.564314, 0.511681, 0.466162, 0.425871, 0.38995, 0.357558, 0.32822, 0.301348, 0.276727, 0.253946, 0.233078, 0.213729, 0.195628, 0.178927, 0.163386, 0.148853, 0.135337, 0.122716, 0.110987, 0.100018
47,0.809097, 0.707663, 0.631865, 0.570155, 0.518002, 0.472727, 0.432746, 0.397037, 0.364667, 0.335413, 0.308564, 0.283919, 0.261132, 0.240178, 0.220788, 0.202673, 0.185833, 0.170148, 0.155502, 0.141834, 0.129083, 0.11721, 0.10608
48,0.812143, 0.712047, 0.637062, 0.575966, 0.524228, 0.479235, 0.439443, 0.403733, 0.371635, 0.342365, 0.315571, 0.290979, 0.268246, 0.247225, 0.227669, 0.209524, 0.192622, 0.176816, 0.16207, 0.148301, 0.135423, 0.123376, 0.112055, 0.101511
49,0.815134, 0.716294, 0.642035, 0.581557, 0.530198, 0.485553, 0.445891, 0.410455, 0.378374, 0.349179, 0.322499, 0.29784, 0.275159, 0.25406, 0.234491, 0.216271, 0.19934, 0.18343, 0.168597, 0.154635, 0.141645, 0.129477, 0.117992, 0.107338
50,0.818055, 0.720288, 0.646784, 0.586849, 0.535877, 0.491539, 0.452219, 0.416874, 0.384955, 0.35583, 0.329134, 0.304516, 0.281825, 0.260751, 0.241182, 0.222828, 0.205804, 0.18988, 0.174919, 0.160968, 0.147805, 0.135493, 0.123958, 0.11307, 0.102887
55,0.831064, 0.738945, 0.669029, 0.611711, 0.562661, 0.519671, 0.481428, 0.447004, 0.415713, 0.387118, 0.360715, 0.336278, 0.31369, 0.292581, 0.27291, 0.254455, 0.237131, 0.220883, 0.205615, 0.191236, 0.177673, 0.164899, 0.152773, 0.141325, 0.130576, 0.120346, 0.110708
60,0.842208, 0.754931, 0.688359, 0.633364, 0.586098, 0.544577, 0.5074, 0.473843, 0.443157, 0.415072, 0.389103, 0.364984, 0.342547, 0.321586, 0.301862, 0.2834, 0.266005, 0.249627, 0.234149, 0.21947, 0.2057, 0.192549, 0.180101, 0.168325, 0.157115, 0.146486, 0.136339, 0.12677, 0.117654, 0.108963
65,0.851869, 0.768931, 0.705249, 0.652484, 0.606803, 0.566589, 0.530482, 0.497787, 0.467865, 0.440269, 0.41473, 0.391004, 0.368779, 0.347953, 0.32842, 0.309975, 0.292617, 0.276133, 0.260607, 0.245809, 0.231843, 0.218564, 0.205894, 0.193769, 0.182279, 0.171354, 0.160956, 0.150985, 0.141493, 0.132424, 0.123773, 0.11548
70,0.860327, 0.781294, 0.720301, 0.669465, 0.625349, 0.586364, 0.551279, 0.51944, 0.490166, 0.463079, 0.438059, 0.414641, 0.392735, 0.372135, 0.352755, 0.334473, 0.31719, 0.300797, 0.285159, 0.270406, 0.256274, 0.242899, 0.230064, 0.217831, 0.206184, 0.195008, 0.184302, 0.174146, 0.164349, 0.155021, 0.146047, 0.137453, 0.129243, 0.121346, 0.113797
75,0.867771, 0.792299, 0.73368, 0.684593, 0.641979, 0.604167, 0.570117, 0.538991, 0.510365, 0.484006, 0.459299, 0.436304, 0.414728, 0.394374, 0.375223, 0.357118, 0.339842, 0.323578, 0.307971, 0.293204, 0.279076, 0.265644, 0.252742, 0.240455, 0.228671, 0.217341, 0.206547, 0.196124, 0.186196, 0.176585, 0.167442, 0.158578, 0.150119, 0.141977, 0.134132, 0.126607, 0.119355
80,0.874441, 0.802111, 0.745683, 0.698388, 0.657074, 0.620399, 0.587179, 0.556825, 0.528923, 0.503023, 0.478859, 0.456299, 0.43502, 0.414946, 0.396015, 0.378082, 0.361004, 0.344793, 0.329342, 0.314562, 0.300521, 0.287009, 0.274117, 0.261815, 0.249954, 0.238521, 0.22763, 0.217098, 0.206986, 0.197273, 0.187942, 0.178922, 0.170276, 0.161898, 0.153865, 0.146159, 0.138657, 0.131441, 0.124486, 0.11783
90,0.88578, 0.818933, 0.766385, 0.72206, 0.683224, 0.648492, 0.617008, 0.588148, 0.561405, 0.53656, 0.51333, 0.491492, 0.470892, 0.451455, 0.432981, 0.415492, 0.39874, 0.382912, 0.36766, 0.353078, 0.339115, 0.32575, 0.312877, 0.300536, 0.288708, 0.27724, 0.266221, 0.255598, 0.245392, 0.235456, 0.225982, 0.216775, 0.207882, 0.199251, 0.190918, 0.182851, 0.175101, 0.167519, 0.160223, 0.153195, 0.146372, 0.139757, 0.133313, 0.127113, 0.121101
100,0.895046, 0.832922, 0.783755, 0.741949, 0.705279, 0.672338, 0.642345, 0.614806, 0.589176, 0.565329, 0.542958, 0.521869, 0.502009, 0.48312, 0.465204, 0.44806, 0.431821, 0.416227, 0.401246, 0.386992, 0.373249, 0.360045, 0.347333, 0.335122, 0.32329, 0.311892, 0.300934, 0.290302, 0.28002, 0.270086, 0.260492, 0.251121, 0.242127, 0.233388, 0.224968, 0.216745, 0.20874, 0.201039, 0.193573, 0.186278, 0.179193, 0.172345, 0.165634, 0.15916, 0.15287, 0.146787, 0.140797, 0.135054, 0.12941, 0.123979
